Unidad de Control Monociclo/cpu_tb.vcd
$date
	Mon Mar 17 17:00:03 2014
$end
$version
	Icarus Verilog
$end
$timescale
	10ps
$end
$scope module cpu_tb $end
$var reg 1 ! clk $end
$var reg 1 " start $end
$scope module cpu1 $end
$var wire 1 # clk $end
$var wire 3 $ op [2:0] $end
$var wire 6 % opcode [5:0] $end
$var wire 1 & reset $end
$var wire 1 ' s_inc $end
$var wire 1 ( s_inm $end
$var wire 1 ) we3 $end
$var wire 1 * z $end
$scope module micro1 $end
$var wire 8 + alu_mux [7:0] $end
$var wire 16 , bus_datos [15:0] $end
$var wire 1 # clk $end
$var wire 10 - mux_pc [9:0] $end
$var wire 8 . mux_reg [7:0] $end
$var wire 3 / op [2:0] $end
$var wire 6 0 opcode [5:0] $end
$var wire 10 1 pc_out [9:0] $end
$var wire 8 2 rd1_alu [7:0] $end
$var wire 8 3 rd2_alu [7:0] $end
$var wire 1 & reset $end
$var wire 1 ' s_inc $end
$var wire 1 ( s_inm $end
$var wire 10 4 sum_mux [9:0] $end
$var wire 1 ) we3 $end
$var wire 1 5 z $end
$var wire 1 * zero $end
$scope module sum_pc $end
$var wire 10 6 a [9:0] $end
$var wire 10 7 b [9:0] $end
$var wire 10 8 y [9:0] $end
$upscope $end
$scope module pc $end
$var wire 1 # clk $end
$var wire 10 9 d [9:0] $end
$var wire 1 & reset $end
$var reg 10 : q [9:0] $end
$upscope $end
$scope module mem_instr $end
$var wire 10 ; a [9:0] $end
$var wire 1 # clk $end
$var wire 16 < rd [15:0] $end
$upscope $end
$scope module mux_inc $end
$var wire 10 = d0 [9:0] $end
$var wire 10 > d1 [9:0] $end
$var wire 1 ' s $end
$var wire 10 ? y [9:0] $end
$upscope $end
$scope module registros $end
$var wire 1 # clk $end
$var wire 4 @ ra1 [3:0] $end
$var wire 4 A ra2 [3:0] $end
$var wire 8 B rd1 [7:0] $end
$var wire 8 C rd2 [7:0] $end
$var wire 4 D wa3 [3:0] $end
$var wire 8 E wd3 [7:0] $end
$var wire 1 ) we3 $end
$upscope $end
$scope module alu1 $end
$var wire 8 F a [7:0] $end
$var wire 8 G b [7:0] $end
$var wire 3 H op [2:0] $end
$var wire 8 I y [7:0] $end
$var wire 1 5 zero $end
$var reg 8 J s [7:0] $end
$upscope $end
$scope module mux_inm $end
$var wire 8 K d0 [7:0] $end
$var wire 8 L d1 [7:0] $end
$var wire 1 ( s $end
$var wire 8 M y [7:0] $end
$upscope $end
$scope module ffzero $end
$var wire 1 # clk $end
$var wire 1 5 d $end
$var wire 1 & reset $end
$var reg 1 N q $end
$upscope $end
$upscope $end
$scope module uc1 $end
$var wire 1 # clk $end
$var wire 3 O op [2:0] $end
$var wire 6 P opcode [5:0] $end
$var wire 1 & reset $end
$var wire 1 * z $end
$var reg 1 Q s_inc $end
$var reg 1 R s_inm $end
$var reg 1 S we3 $end
$upscope $end
$upscope $end
$upscope $end
$enddefinitions $end
#0
$dumpvars
0S
0R
1Q
b1000 P
b0 O
0N
b0 M
b0 L
b0 K
b0 J
b0 I
b0 H
b0 G
b0 F
b0 E
b1 D
b0 C
b0 B
b0 A
b0 @
b1 ?
b1 >
b1000000 =
b1000000001000 <
b0 ;
b0 :
b1 9
b1 8
b1 7
b0 6
15
b1 4
b0 3
b0 2
b0 1
b1000 0
b0 /
b0 .
b1 -
b1000000001000 ,
b0 +
0*
0)
0(
1'
1&
b1000 %
b0 $
1#
1"
1!
$end
#500
1R
1(
1S
1)
0"
0&
#2000
0!
0#
#8000
b1 .
b1 E
b1 M
b11000 %
b11000 0
b11000 P
b1 L
b10 D
b1 @
b10000000 =
b10 -
b10 9
b10 ?
1N
1*
b1 :
b10000000011000 ,
b10000000011000 <
b10 4
b10 8
b10 >
b1 1
b1 6
b1 ;
1!
1#
#10000
0!
0#
#16000
x5
bx J
bx +
bx I
bx K
b11 .
b11 E
b11 M
bx 2
bx B
bx F
b111000 %
b111000 0
b111000 P
b11 L
b11 D
b11 @
b11000000 =
b11 -
b11 9
b11 ?
b10 :
b11000000111000 ,
b11000000111000 <
b11 4
b11 8
b11 >
b10 1
b10 6
b10 ;
1!
1#
#18000
0!
0#
#24000
0R
0(
05
b11 $
b11 /
b11 H
b11 O
b11111101 .
b11111101 E
b11111101 M
b11 3
b11 C
b11 G
b11111101 J
b11111101 +
b11111101 I
b11111101 K
b10011 %
b10011 0
b10011 P
b110001 L
b100 D
b11 A
b1 @
b100001100 =
b100 -
b100 9
b100 ?
b0 2
b0 B
b0 F
xN
x*
b11 :
b100001100010011 ,
b100001100010011 <
b100 4
b100 8
b100 >
b11 1
b11 6
b11 ;
1!
1#
#26000
0!
0#
#32000
0S
0)
b10 .
b10 E
b10 M
b10 J
b10 +
b10 I
b10 K
b10 $
b10 /
b10 H
b10 O
b1 3
b1 C
b1 G
b1 2
b1 B
b1 F
b101010 %
b101010 0
b101010 P
b100010 L
b0 D
b10 A
b10 @
b1000 =
b101 -
b101 9
b101 ?
b100 :
b1000101010 ,
b1000101010 <
b101 4
b101 8
b101 >
b100 1
b100 6
b100 ;
0N
0*
1!
1#
#34000
0!
0#
#40000
1S
1)
b1 .
b1 E
b1 M
b1 J
b1 +
b1 I
b1 K
b0 2
b0 B
b0 F
b10010 %
b10010 0
b10010 P
b100001 L
b11 D
b1 @
b11001000 =
b110 -
b110 9
b110 ?
b101 :
b11001000010010 ,
b11001000010010 <
b110 4
b110 8
b110 >
b101 1
b101 6
b101 ;
1!
1#
#42000
0!
0#
#48000
15
b0 .
b0 E
b0 M
b0 J
b0 +
b0 I
b0 K
b0 $
b0 /
b0 H
b0 O
b11111101 3
b11111101 C
b11111101 G
b0 %
b0 0
b0 P
b1000000 L
b1 D
b100 A
b0 @
b1010000 =
b111 -
b111 9
b111 ?
b110 :
b1010000000000 ,
b1010000000000 <
b111 4
b111 8
b111 >
b110 1
b110 6
b110 ;
1!
1#
#50000
0!
0#
#56000
0Q
0'
0S
0)
x5
bx .
bx E
bx M
bx J
bx +
bx I
bx K
b1 $
b1 /
b1 H
b1 O
b0 3
b0 C
b0 G
bx 2
bx B
bx F
b101001 %
b101001 0
b101001 P
b1110 L
b0 D
b0 A
b1110 @
b11 =
b11 -
b11 9
b11 ?
1N
1*
b111 :
b11101001 ,
b11101001 <
b1000 4
b1000 8
b1000 >
b111 1
b111 6
b111 ;
1!
1#
#58000
0!
0#
#64000
1Q
1'
1S
1)
05
b11111111 .
b11111111 E
b11111111 M
b11111111 J
b11111111 +
b11111111 I
b11111111 K
b11 $
b11 /
b11 H
b11 O
b1 3
b1 C
b1 G
b0 2
b0 B
b0 F
b100 -
b100 9
b100 ?
b10011 %
b10011 0
b10011 P
b110001 L
b100 D
b11 A
b1 @
b100001100 =
b11 :
b100001100010011 ,
b100001100010011 <
b100 4
b100 8
b100 >
b11 1
b11 6
b11 ;
xN
x*
1!
1#
#66000
0!
0#
#72000
0S
0)
b10 .
b10 E
b10 M
b10 J
b10 +
b10 I
b10 K
b10 $
b10 /
b10 H
b10 O
b1 2
b1 B
b1 F
b101010 %
b101010 0
b101010 P
b100010 L
b0 D
b10 A
b10 @
b1000 =
b101 -
b101 9
b101 ?
0N
0*
b100 :
b1000101010 ,
b1000101010 <
b101 4
b101 8
b101 >
b100 1
b100 6
b100 ;
1!
1#
#74000
0!
0#
#80000
1S
1)
b1 .
b1 E
b1 M
b1 J
b1 +
b1 I
b1 K
b0 2
b0 B
b0 F
b10010 %
b10010 0
b10010 P
b100001 L
b11 D
b1 @
b11001000 =
b110 -
b110 9
b110 ?
b101 :
b11001000010010 ,
b11001000010010 <
b110 4
b110 8
b110 >
b101 1
b101 6
b101 ;
1!
1#
#82000
0!
0#
#88000
15
b0 .
b0 E
b0 M
b0 J
b0 +
b0 I
b0 K
b0 $
b0 /
b0 H
b0 O
b11111111 3
b11111111 C
b11111111 G
b0 %
b0 0
b0 P
b1000000 L
b1 D
b100 A
b0 @
b1010000 =
b111 -
b111 9
b111 ?
b110 :
b1010000000000 ,
b1010000000000 <
b111 4
b111 8
b111 >
b110 1
b110 6
b110 ;
1!
1#
#90000
0!
0#
#96000
0Q
0'
0S
0)
x5
bx .
bx E
bx M
bx J
bx +
bx I
bx K
b1 $
b1 /
b1 H
b1 O
b0 3
b0 C
b0 G
bx 2
bx B
bx F
b101001 %
b101001 0
b101001 P
b1110 L
b0 D
b0 A
b1110 @
b11 =
b11 -
b11 9
b11 ?
b111 :
b11101001 ,
b11101001 <
b1000 4
b1000 8
b1000 >
b111 1
b111 6
b111 ;
1N
1*
1!
1#
#98000
0!
0#
#104000
1Q
1'
1S
1)
05
b11111111 .
b11111111 E
b11111111 M
b11111111 J
b11111111 +
b11111111 I
b11111111 K
b11 $
b11 /
b11 H
b11 O
b1 3
b1 C
b1 G
b0 2
b0 B
b0 F
b100 -
b100 9
b100 ?
b10011 %
b10011 0
b10011 P
b110001 L
b100 D
b11 A
b1 @
b100001100 =
xN
x*
b11 :
b100001100010011 ,
b100001100010011 <
b100 4
b100 8
b100 >
b11 1
b11 6
b11 ;
1!
1#
#106000
0!
0#
#112000
0S
0)
b10 .
b10 E
b10 M
b10 J
b10 +
b10 I
b10 K
b10 $
b10 /
b10 H
b10 O
b1 2
b1 B
b1 F
b101010 %
b101010 0
b101010 P
b100010 L
b0 D
b10 A
b10 @
b1000 =
b101 -
b101 9
b101 ?
b100 :
b1000101010 ,
b1000101010 <
b101 4
b101 8
b101 >
b100 1
b100 6
b100 ;
0N
0*
1!
1#
#114000
0!
0#
#120000
1S
1)
b1 .
b1 E
b1 M
b1 J
b1 +
b1 I
b1 K
b0 2
b0 B
b0 F
b10010 %
b10010 0
b10010 P
b100001 L
b11 D
b1 @
b11001000 =
b110 -
b110 9
b110 ?
b101 :
b11001000010010 ,
b11001000010010 <
b110 4
b110 8
b110 >
b101 1
b101 6
b101 ;
1!
1#
#122000
0!
0#
#128000
15
b0 .
b0 E
b0 M
b0 J
b0 +
b0 I
b0 K
b0 $
b0 /
b0 H
b0 O
b11111111 3
b11111111 C
b11111111 G
b0 %
b0 0
b0 P
b1000000 L
b1 D
b100 A
b0 @
b1010000 =
b111 -
b111 9
b111 ?
b110 :
b1010000000000 ,
b1010000000000 <
b111 4
b111 8
b111 >
b110 1
b110 6
b110 ;
1!
1#
#130000
0!
0#
#136000
0Q
0'
0S
0)
x5
bx .
bx E
bx M
bx J
bx +
bx I
bx K
b1 $
b1 /
b1 H
b1 O
b0 3
b0 C
b0 G
bx 2
bx B
bx F
b101001 %
b101001 0
b101001 P
b1110 L
b0 D
b0 A
b1110 @
b11 =
b11 -
b11 9
b11 ?
1N
1*
b111 :
b11101001 ,
b11101001 <
b1000 4
b1000 8
b1000 >
b111 1
b111 6
b111 ;
1!
1#
#138000
0!
0#
#144000
1Q
1'
1S
1)
05
b11111111 .
b11111111 E
b11111111 M
b11111111 J
b11111111 +
b11111111 I
b11111111 K
b11 $
b11 /
b11 H
b11 O
b1 3
b1 C
b1 G
b0 2
b0 B
b0 F
b100 -
b100 9
b100 ?
b10011 %
b10011 0
b10011 P
b110001 L
b100 D
b11 A
b1 @
b100001100 =
b11 :
b100001100010011 ,
b100001100010011 <
b100 4
b100 8
b100 >
b11 1
b11 6
b11 ;
xN
x*
1!
1#
#146000
0!
0#
#152000
0S
0)
b10 .
b10 E
b10 M
b10 J
b10 +
b10 I
b10 K
b10 $
b10 /
b10 H
b10 O
b1 2
b1 B
b1 F
b101010 %
b101010 0
b101010 P
b100010 L
b0 D
b10 A
b10 @
b1000 =
b101 -
b101 9
b101 ?
0N
0*
b100 :
b1000101010 ,
b1000101010 <
b101 4
b101 8
b101 >
b100 1
b100 6
b100 ;
1!
1#
#154000
0!
0#
#160000
1S
1)
b1 .
b1 E
b1 M
b1 J
b1 +
b1 I
b1 K
b0 2
b0 B
b0 F
b10010 %
b10010 0
b10010 P
b100001 L
b11 D
b1 @
b11001000 =
b110 -
b110 9
b110 ?
b101 :
b11001000010010 ,
b11001000010010 <
b110 4
b110 8
b110 >
b101 1
b101 6
b101 ;
1!
1#
#162000
0!
0#
#168000
15
b0 .
b0 E
b0 M
b0 J
b0 +
b0 I
b0 K
b0 $
b0 /
b0 H
b0 O
b11111111 3
b11111111 C
b11111111 G
b0 %
b0 0
b0 P
b1000000 L
b1 D
b100 A
b0 @
b1010000 =
b111 -
b111 9
b111 ?
b110 :
b1010000000000 ,
b1010000000000 <
b111 4
b111 8
b111 >
b110 1
b110 6
b110 ;
1!
1#
#170000
0!
0#
#176000
0Q
0'
0S
0)
x5
bx .
bx E
bx M
bx J
bx +
bx I
bx K
b1 $
b1 /
b1 H
b1 O
b0 3
b0 C
b0 G
bx 2
bx B
bx F
b101001 %
b101001 0
b101001 P
b1110 L
b0 D
b0 A
b1110 @
b11 =
b11 -
b11 9
b11 ?
b111 :
b11101001 ,
b11101001 <
b1000 4
b1000 8
b1000 >
b111 1
b111 6
b111 ;
1N
1*
1!
1#
#178000
0!
0#
#184000
1Q
1'
1S
1)
05
b11111111 .
b11111111 E
b11111111 M
b11111111 J
b11111111 +
b11111111 I
b11111111 K
b11 $
b11 /
b11 H
b11 O
b1 3
b1 C
b1 G
b0 2
b0 B
b0 F
b100 -
b100 9
b100 ?
b10011 %
b10011 0
b10011 P
b110001 L
b100 D
b11 A
b1 @
b100001100 =
xN
x*
b11 :
b100001100010011 ,
b100001100010011 <
b100 4
b100 8
b100 >
b11 1
b11 6
b11 ;
1!
1#
#186000
0!
0#
#192000
0S
0)
b10 .
b10 E
b10 M
b10 J
b10 +
b10 I
b10 K
b10 $
b10 /
b10 H
b10 O
b1 2
b1 B
b1 F
b101010 %
b101010 0
b101010 P
b100010 L
b0 D
b10 A
b10 @
b1000 =
b101 -
b101 9
b101 ?
b100 :
b1000101010 ,
b1000101010 <
b101 4
b101 8
b101 >
b100 1
b100 6
b100 ;
0N
0*
1!
1#
#194000
0!
0#
#200000
1S
1)
b1 .
b1 E
b1 M
b1 J
b1 +
b1 I
b1 K
b0 2
b0 B
b0 F
b10010 %
b10010 0
b10010 P
b100001 L
b11 D
b1 @
b11001000 =
b110 -
b110 9
b110 ?
b101 :
b11001000010010 ,
b11001000010010 <
b110 4
b110 8
b110 >
b101 1
b101 6
b101 ;
1!
1#
#202000
0!
0#
#208000
15
b0 .
b0 E
b0 M
b0 J
b0 +
b0 I
b0 K
b0 $
b0 /
b0 H
b0 O
b11111111 3
b11111111 C
b11111111 G
b0 %
b0 0
b0 P
b1000000 L
b1 D
b100 A
b0 @
b1010000 =
b111 -
b111 9
b111 ?
b110 :
b1010000000000 ,
b1010000000000 <
b111 4
b111 8
b111 >
b110 1
b110 6
b110 ;
1!
1#
#210000
0!
0#
#216000
0Q
0'
0S
0)
x5
bx .
bx E
bx M
bx J
bx +
bx I
bx K
b1 $
b1 /
b1 H
b1 O
b0 3
b0 C
b0 G
bx 2
bx B
bx F
b101001 %
b101001 0
b101001 P
b1110 L
b0 D
b0 A
b1110 @
b11 =
b11 -
b11 9
b11 ?
1N
1*
b111 :
b11101001 ,
b11101001 <
b1000 4
b1000 8
b1000 >
b111 1
b111 6
b111 ;
1!
1#
#218000
0!
0#
#224000
1Q
1'
1S
1)
05
b11111111 .
b11111111 E
b11111111 M
b11111111 J
b11111111 +
b11111111 I
b11111111 K
b11 $
b11 /
b11 H
b11 O
b1 3
b1 C
b1 G
b0 2
b0 B
b0 F
b100 -
b100 9
b100 ?
b10011 %
b10011 0
b10011 P
b110001 L
b100 D
b11 A
b1 @
b100001100 =
b11 :
b100001100010011 ,
b100001100010011 <
b100 4
b100 8
b100 >
b11 1
b11 6
b11 ;
xN
x*
1!
1#
#226000
0!
0#
#232000
0S
0)
b10 .
b10 E
b10 M
b10 J
b10 +
b10 I
b10 K
b10 $
b10 /
b10 H
b10 O
b1 2
b1 B
b1 F
b101010 %
b101010 0
b101010 P
b100010 L
b0 D
b10 A
b10 @
b1000 =
b101 -
b101 9
b101 ?
0N
0*
b100 :
b1000101010 ,
b1000101010 <
b101 4
b101 8
b101 >
b100 1
b100 6
b100 ;
1!
1#
#234000
0!
0#
#240000
1S
1)
b1 .
b1 E
b1 M
b1 J
b1 +
b1 I
b1 K
b0 2
b0 B
b0 F
b10010 %
b10010 0
b10010 P
b100001 L
b11 D
b1 @
b11001000 =
b110 -
b110 9
b110 ?
b101 :
b11001000010010 ,
b11001000010010 <
b110 4
b110 8
b110 >
b101 1
b101 6
b101 ;
1!
1#
#242000
0!
0#
#248000
15
b0 .
b0 E
b0 M
b0 J
b0 +
b0 I
b0 K
b0 $
b0 /
b0 H
b0 O
b11111111 3
b11111111 C
b11111111 G
b0 %
b0 0
b0 P
b1000000 L
b1 D
b100 A
b0 @
b1010000 =
b111 -
b111 9
b111 ?
b110 :
b1010000000000 ,
b1010000000000 <
b111 4
b111 8
b111 >
b110 1
b110 6
b110 ;
1!
1#
#250000
0!
0#
#256000
0Q
0'
0S
0)
x5
bx .
bx E
bx M
bx J
bx +
bx I
bx K
b1 $
b1 /
b1 H
b1 O
b0 3
b0 C
b0 G
bx 2
bx B
bx F
b101001 %
b101001 0
b101001 P
b1110 L
b0 D
b0 A
b1110 @
b11 =
b11 -
b11 9
b11 ?
b111 :
b11101001 ,
b11101001 <
b1000 4
b1000 8
b1000 >
b111 1
b111 6
b111 ;
1N
1*
1!
1#
#258000
0!
0#
#264000
1Q
1'
1S
1)
05
b11111111 .
b11111111 E
b11111111 M
b11111111 J
b11111111 +
b11111111 I
b11111111 K
b11 $
b11 /
b11 H
b11 O
b1 3
b1 C
b1 G
b0 2
b0 B
b0 F
b100 -
b100 9
b100 ?
b10011 %
b10011 0
b10011 P
b110001 L
b100 D
b11 A
b1 @
b100001100 =
xN
x*
b11 :
b100001100010011 ,
b100001100010011 <
b100 4
b100 8
b100 >
b11 1
b11 6
b11 ;
1!
1#
#266000
0!
0#
#272000
0S
0)
b10 .
b10 E
b10 M
b10 J
b10 +
b10 I
b10 K
b10 $
b10 /
b10 H
b10 O
b1 2
b1 B
b1 F
b101010 %
b101010 0
b101010 P
b100010 L
b0 D
b10 A
b10 @
b1000 =
b101 -
b101 9
b101 ?
b100 :
b1000101010 ,
b1000101010 <
b101 4
b101 8
b101 >
b100 1
b100 6
b100 ;
0N
0*
1!
1#
#274000
0!
0#
#280000
1S
1)
b1 .
b1 E
b1 M
b1 J
b1 +
b1 I
b1 K
b0 2
b0 B
b0 F
b10010 %
b10010 0
b10010 P
b100001 L
b11 D
b1 @
b11001000 =
b110 -
b110 9
b110 ?
b101 :
b11001000010010 ,
b11001000010010 <
b110 4
b110 8
b110 >
b101 1
b101 6
b101 ;
1!
1#
#282000
0!
0#
#288000
15
b0 .
b0 E
b0 M
b0 J
b0 +
b0 I
b0 K
b0 $
b0 /
b0 H
b0 O
b11111111 3
b11111111 C
b11111111 G
b0 %
b0 0
b0 P
b1000000 L
b1 D
b100 A
b0 @
b1010000 =
b111 -
b111 9
b111 ?
b110 :
b1010000000000 ,
b1010000000000 <
b111 4
b111 8
b111 >
b110 1
b110 6
b110 ;
1!
1#
#290000
0!
0#
#296000
0Q
0'
0S
0)
x5
bx .
bx E
bx M
bx J
bx +
bx I
bx K
b1 $
b1 /
b1 H
b1 O
b0 3
b0 C
b0 G
bx 2
bx B
bx F
b101001 %
b101001 0
b101001 P
b1110 L
b0 D
b0 A
b1110 @
b11 =
b11 -
b11 9
b11 ?
1N
1*
b111 :
b11101001 ,
b11101001 <
b1000 4
b1000 8
b1000 >
b111 1
b111 6
b111 ;
1!
1#
#298000
0!
0#
#304000
1Q
1'
1S
1)
05
b11111111 .
b11111111 E
b11111111 M
b11111111 J
b11111111 +
b11111111 I
b11111111 K
b11 $
b11 /
b11 H
b11 O
b1 3
b1 C
b1 G
b0 2
b0 B
b0 F
b100 -
b100 9
b100 ?
b10011 %
b10011 0
b10011 P
b110001 L
b100 D
b11 A
b1 @
b100001100 =
b11 :
b100001100010011 ,
b100001100010011 <
b100 4
b100 8
b100 >
b11 1
b11 6
b11 ;
xN
x*
1!
1#
#306000
0!
0#
#312000
0S
0)
b10 .
b10 E
b10 M
b10 J
b10 +
b10 I
b10 K
b10 $
b10 /
b10 H
b10 O
b1 2
b1 B
b1 F
b101010 %
b101010 0
b101010 P
b100010 L
b0 D
b10 A
b10 @
b1000 =
b101 -
b101 9
b101 ?
0N
0*
b100 :
b1000101010 ,
b1000101010 <
b101 4
b101 8
b101 >
b100 1
b100 6
b100 ;
1!
1#
#314000
0!
0#
#320000
1S
1)
b1 .
b1 E
b1 M
b1 J
b1 +
b1 I
b1 K
b0 2
b0 B
b0 F
b10010 %
b10010 0
b10010 P
b100001 L
b11 D
b1 @
b11001000 =
b110 -
b110 9
b110 ?
b101 :
b11001000010010 ,
b11001000010010 <
b110 4
b110 8
b110 >
b101 1
b101 6
b101 ;
1!
1#
#322000
0!
0#
#328000
15
b0 .
b0 E
b0 M
b0 J
b0 +
b0 I
b0 K
b0 $
b0 /
b0 H
b0 O
b11111111 3
b11111111 C
b11111111 G
b0 %
b0 0
b0 P
b1000000 L
b1 D
b100 A
b0 @
b1010000 =
b111 -
b111 9
b111 ?
b110 :
b1010000000000 ,
b1010000000000 <
b111 4
b111 8
b111 >
b110 1
b110 6
b110 ;
1!
1#
#330000
0!
0#
#336000
0Q
0'
0S
0)
x5
bx .
bx E
bx M
bx J
bx +
bx I
bx K
b1 $
b1 /
b1 H
b1 O
b0 3
b0 C
b0 G
bx 2
bx B
bx F
b101001 %
b101001 0
b101001 P
b1110 L
b0 D
b0 A
b1110 @
b11 =
b11 -
b11 9
b11 ?
b111 :
b11101001 ,
b11101001 <
b1000 4
b1000 8
b1000 >
b111 1
b111 6
b111 ;
1N
1*
1!
1#
#338000
0!
0#
#344000
1Q
1'
1S
1)
05
b11111111 .
b11111111 E
b11111111 M
b11111111 J
b11111111 +
b11111111 I
b11111111 K
b11 $
b11 /
b11 H
b11 O
b1 3
b1 C
b1 G
b0 2
b0 B
b0 F
b100 -
b100 9
b100 ?
b10011 %
b10011 0
b10011 P
b110001 L
b100 D
b11 A
b1 @
b100001100 =
xN
x*
b11 :
b100001100010011 ,
b100001100010011 <
b100 4
b100 8
b100 >
b11 1
b11 6
b11 ;
1!
1#
#346000
0!
0#
#352000
0S
0)
b10 .
b10 E
b10 M
b10 J
b10 +
b10 I
b10 K
b10 $
b10 /
b10 H
b10 O
b1 2
b1 B
b1 F
b101010 %
b101010 0
b101010 P
b100010 L
b0 D
b10 A
b10 @
b1000 =
b101 -
b101 9
b101 ?
b100 :
b1000101010 ,
b1000101010 <
b101 4
b101 8
b101 >
b100 1
b100 6
b100 ;
0N
0*
1!
1#
#354000
0!
0#
#360000
1S
1)
b1 .
b1 E
b1 M
b1 J
b1 +
b1 I
b1 K
b0 2
b0 B
b0 F
b10010 %
b10010 0
b10010 P
b100001 L
b11 D
b1 @
b11001000 =
b110 -
b110 9
b110 ?
b101 :
b11001000010010 ,
b11001000010010 <
b110 4
b110 8
b110 >
b101 1
b101 6
b101 ;
1!
1#
#362000
0!
0#
#368000
15
b0 .
b0 E
b0 M
b0 J
b0 +
b0 I
b0 K
b0 $
b0 /
b0 H
b0 O
b11111111 3
b11111111 C
b11111111 G
b0 %
b0 0
b0 P
b1000000 L
b1 D
b100 A
b0 @
b1010000 =
b111 -
b111 9
b111 ?
b110 :
b1010000000000 ,
b1010000000000 <
b111 4
b111 8
b111 >
b110 1
b110 6
b110 ;
1!
1#
#370000
0!
0#
#376000
0Q
0'
0S
0)
x5
bx .
bx E
bx M
bx J
bx +
bx I
bx K
b1 $
b1 /
b1 H
b1 O
b0 3
b0 C
b0 G
bx 2
bx B
bx F
b101001 %
b101001 0
b101001 P
b1110 L
b0 D
b0 A
b1110 @
b11 =
b11 -
b11 9
b11 ?
1N
1*
b111 :
b11101001 ,
b11101001 <
b1000 4
b1000 8
b1000 >
b111 1
b111 6
b111 ;
1!
1#
#378000
0!
0#
#384000
1Q
1'
1S
1)
05
b11111111 .
b11111111 E
b11111111 M
b11111111 J
b11111111 +
b11111111 I
b11111111 K
b11 $
b11 /
b11 H
b11 O
b1 3
b1 C
b1 G
b0 2
b0 B
b0 F
b100 -
b100 9
b100 ?
b10011 %
b10011 0
b10011 P
b110001 L
b100 D
b11 A
b1 @
b100001100 =
b11 :
b100001100010011 ,
b100001100010011 <
b100 4
b100 8
b100 >
b11 1
b11 6
b11 ;
xN
x*
1!
1#
#386000
0!
0#
#392000
0S
0)
b10 .
b10 E
b10 M
b10 J
b10 +
b10 I
b10 K
b10 $
b10 /
b10 H
b10 O
b1 2
b1 B
b1 F
b101010 %
b101010 0
b101010 P
b100010 L
b0 D
b10 A
b10 @
b1000 =
b101 -
b101 9
b101 ?
0N
0*
b100 :
b1000101010 ,
b1000101010 <
b101 4
b101 8
b101 >
b100 1
b100 6
b100 ;
1!
1#
#394000
0!
0#
#400000
1S
1)
b1 .
b1 E
b1 M
b1 J
b1 +
b1 I
b1 K
b0 2
b0 B
b0 F
b10010 %
b10010 0
b10010 P
b100001 L
b11 D
b1 @
b11001000 =
b110 -
b110 9
b110 ?
b101 :
b11001000010010 ,
b11001000010010 <
b110 4
b110 8
b110 >
b101 1
b101 6
b101 ;
1!
1#
#402000
0!
0#
#408000
15
b0 .
b0 E
b0 M
b0 J
b0 +
b0 I
b0 K
b0 $
b0 /
b0 H
b0 O
b11111111 3
b11111111 C
b11111111 G
b0 %
b0 0
b0 P
b1000000 L
b1 D
b100 A
b0 @
b1010000 =
b111 -
b111 9
b111 ?
b110 :
b1010000000000 ,
b1010000000000 <
b111 4
b111 8
b111 >
b110 1
b110 6
b110 ;
1!
1#
#410000
0!
0#
#416000
0Q
0'
0S
0)
x5
bx .
bx E
bx M
bx J
bx +
bx I
bx K
b1 $
b1 /
b1 H
b1 O
b0 3
b0 C
b0 G
bx 2
bx B
bx F
b101001 %
b101001 0
b101001 P
b1110 L
b0 D
b0 A
b1110 @
b11 =
b11 -
b11 9
b11 ?
b111 :
b11101001 ,
b11101001 <
b1000 4
b1000 8
b1000 >
b111 1
b111 6
b111 ;
1N
1*
1!
1#
#418000
0!
0#
#424000
1Q
1'
1S
1)
05
b11111111 .
b11111111 E
b11111111 M
b11111111 J
b11111111 +
b11111111 I
b11111111 K
b11 $
b11 /
b11 H
b11 O
b1 3
b1 C
b1 G
b0 2
b0 B
b0 F
b100 -
b100 9
b100 ?
b10011 %
b10011 0
b10011 P
b110001 L
b100 D
b11 A
b1 @
b100001100 =
xN
x*
b11 :
b100001100010011 ,
b100001100010011 <
b100 4
b100 8
b100 >
b11 1
b11 6
b11 ;
1!
1#
#426000
0!
0#
#432000
0S
0)
b10 .
b10 E
b10 M
b10 J
b10 +
b10 I
b10 K
b10 $
b10 /
b10 H
b10 O
b1 2
b1 B
b1 F
b101010 %
b101010 0
b101010 P
b100010 L
b0 D
b10 A
b10 @
b1000 =
b101 -
b101 9
b101 ?
b100 :
b1000101010 ,
b1000101010 <
b101 4
b101 8
b101 >
b100 1
b100 6
b100 ;
0N
0*
1!
1#
#434000
0!
0#
#440000
1S
1)
b1 .
b1 E
b1 M
b1 J
b1 +
b1 I
b1 K
b0 2
b0 B
b0 F
b10010 %
b10010 0
b10010 P
b100001 L
b11 D
b1 @
b11001000 =
b110 -
b110 9
b110 ?
b101 :
b11001000010010 ,
b11001000010010 <
b110 4
b110 8
b110 >
b101 1
b101 6
b101 ;
1!
1#
#442000
0!
0#
#448000
15
b0 .
b0 E
b0 M
b0 J
b0 +
b0 I
b0 K
b0 $
b0 /
b0 H
b0 O
b11111111 3
b11111111 C
b11111111 G
b0 %
b0 0
b0 P
b1000000 L
b1 D
b100 A
b0 @
b1010000 =
b111 -
b111 9
b111 ?
b110 :
b1010000000000 ,
b1010000000000 <
b111 4
b111 8
b111 >
b110 1
b110 6
b110 ;
1!
1#
#450000
0!
0#
#456000
0Q
0'
0S
0)
x5
bx .
bx E
bx M
bx J
bx +
bx I
bx K
b1 $
b1 /
b1 H
b1 O
b0 3
b0 C
b0 G
bx 2
bx B
bx F
b101001 %
b101001 0
b101001 P
b1110 L
b0 D
b0 A
b1110 @
b11 =
b11 -
b11 9
b11 ?
1N
1*
b111 :
b11101001 ,
b11101001 <
b1000 4
b1000 8
b1000 >
b111 1
b111 6
b111 ;
1!
1#
#458000
0!
0#
#464000
1Q
1'
1S
1)
05
b11111111 .
b11111111 E
b11111111 M
b11111111 J
b11111111 +
b11111111 I
b11111111 K
b11 $
b11 /
b11 H
b11 O
b1 3
b1 C
b1 G
b0 2
b0 B
b0 F
b100 -
b100 9
b100 ?
b10011 %
b10011 0
b10011 P
b110001 L
b100 D
b11 A
b1 @
b100001100 =
b11 :
b100001100010011 ,
b100001100010011 <
b100 4
b100 8
b100 >
b11 1
b11 6
b11 ;
xN
x*
1!
1#
#466000
0!
0#
#472000
0S
0)
b10 .
b10 E
b10 M
b10 J
b10 +
b10 I
b10 K
b10 $
b10 /
b10 H
b10 O
b1 2
b1 B
b1 F
b101010 %
b101010 0
b101010 P
b100010 L
b0 D
b10 A
b10 @
b1000 =
b101 -
b101 9
b101 ?
0N
0*
b100 :
b1000101010 ,
b1000101010 <
b101 4
b101 8
b101 >
b100 1
b100 6
b100 ;
1!
1#
#474000
0!
0#
#480000
1S
1)
b1 .
b1 E
b1 M
b1 J
b1 +
b1 I
b1 K
b0 2
b0 B
b0 F
b10010 %
b10010 0
b10010 P
b100001 L
b11 D
b1 @
b11001000 =
b110 -
b110 9
b110 ?
b101 :
b11001000010010 ,
b11001000010010 <
b110 4
b110 8
b110 >
b101 1
b101 6
b101 ;
1!
1#
#482000
0!
0#
